^C:\USERS\LEE SUNG HOON\DESKTOP\WORKSPACE\PROJECT\DISPLAYIMAGEINASCII\IMAGE.CPP
C:\USERS\LEE SUNG HOON\DESKTOP\WORKSPACE\PROJECT\DISPLAYIMAGEINASCII\X64\DEBUG\VC143.PDB
C:\USERS\LEE SUNG HOON\DESKTOP\WORKSPACE\PROJECT\DISPLAYIMAGEINASCII\X64\DEBUG\VC143.IDB
C:\USERS\LEE SUNG HOON\DESKTOP\WORKSPACE\PROJECT\DISPLAYIMAGEINASCII\X64\DEBUG\IMAGE.OBJ
